Chapter 11 Appendix: Tidyverse | BIOSTATS
…
# select/remove multiple columns with an end rule
# ends_with("x")
select(iris, ends_with("Width"))
select(iris, -ends_with("Width"))

mutate(): add column(s)

# add a new column
x <- 1:150
mutate(iris, x = x)

## # A tibble: 150 × 6
##    Sepal.Length Sepal.Width Petal.Length Petal.Width Species     x
##           <dbl>       <dbl>        <dbl>       <dbl> <fct>   <int>
##  1          5.1         3.5          1.4         0.2 setosa      1
##  2          4.9         3            1.4         0.2 setosa      2
##  3          4.7         3.2          1.3         0.2 setosa      3
##  4          4.6         3.1          1.5         0.2 setosa      4
##  5          5           3.6          1.4         0.2 setosa      5
##  6          5.4         3.9          1.7         0.4 setosa      6
##  7          4.6         3.4          1.4         0.3 setosa      7
##  8          5           3.4          1.5         0.2 setosa      8
##  9          4.4         2.9          1.4         0.2 setosa      9
## 10          4.9         3.1          1.5         0.1 setosa     10
## # ℹ 140 more rows

11.2.4 Piping

%>% (pipe) allows sequential operations of multiple functions (shortcut: Ctr + Shift + M). The pipe passes the object to the following function as the first argument.

# the following codes produce the same data frame
# apply functions separately
df_vir <- filter(iris, Species == "virginica")
df_vir_sl <- select(df_vir, Sepal.Length)
print(df_vir_sl)

## # A tibble: 50 × 1
##    Sepal.Length
##           <dbl>
##  1          6.3
##  2          5.8
##  3          7.1
##  4          6.3
##  5          6.5
##  6          7.6
##  7          4.9
##  8          7.3
##  9          6.7
## 10          7.2
## # ℹ 40 more rows

# piping
iris %>% 
  filter(Species == "virginica") %>% 
  select(Sepal.Length)

## # A tibble: 50 × 1
##    Sepal.Length
##           <dbl>
##  1          6.3
##  2          5.8
##  3          7.1
##  4          6.3
##  5          6.5
##  6          7.6
##  7          4.9
##  8          7.3
##  9          6.7
## 10          7.2
## # ℹ 40 more rows

11.2.5 Reshape

pivot_wider() : reshape a data frame to a wide format

iris_w <- iris %>% 
  mutate(id = rep(1:50, 3)) %>% # add an ID column
  select(id, Sepal.Length, Species) %>% 
  pivot_wider(id_cols = "id", # unique row ID based on
              values_from = "Sepal.Length", # values in each cell from
              names_from = "Species") # new column names from

print(iris_w)

## # A tibble: 50 × 4
##       id setosa versicolor virginica
##    <int>  <dbl>      <dbl>     <dbl>
##  1     1    5.1        7         6.3
##  2     2    4.9        6.4       5.8
##  3     3    4.7        6.9       7.1
##  4     4    4.6        5.5       6.3
##  5     5    5          6.5       6.5
##  6     6    5.4        5.7       7.6
##  7     7    4.6        6.3       4.9
##  8     8    5          4.9       7.3
##  9     9    4.4        6.6       6.7
## 10    10    4.9        5.2       7.2
## # ℹ 40 more rows

pivot_longer(): reshape a data frame to a long format

iris_l <- iris_w %>% 
  pivot_longer(cols = c("setosa",
                        "versicolor",
                        "virginica"), # columns with values to be reshaped
               names_to = "Species", # column IDs move to "Species"
               values_to = "Sepal.Length") # column values move to "Sepal.Length"

print(iris_l)

## # A tibble: 150 × 3
##       id Species    Sepal.Length
##    <int> <chr>             <dbl>
##  1     1 setosa              5.1
##  2     1 versicolor          7  
##  3     1 virginica           6.3
##  4     2 setosa              4.9
##  5     2 versicolor          6.4
##  6     2 virginica           5.8
##  7     3 setosa              4.7
##  8     3 versicolor          6.9
##  9     3 virginica           7.1
## 10     4 setosa              4.6
## # ℹ 140 more rows
…
group_by() & mutate(): group-by-group operation. mutate() retains individual rows along with summary columns. Do not forget ungroup() to avoid errors in following operations.

# grouping by "Species", then take means "Speal.Length" for each species
iris %>% 
  group_by(Species) %>% 
  mutate(mu_sl = mean(Sepal.Length)) %>% 
  ungroup()

## # A tibble: 150 × 6
##    Sepal.Length Sepal.Width Petal.Length Petal.Width Species mu_sl
##           <dbl>       <dbl>        <dbl>       <dbl> <fct>   <dbl>
##  1          5.1         3.5          1.4         0.2 setosa   5.01
##  2          4.9         3            1.4         0.2 setosa   5.01
##  3          4.7         3.2          1.3         0.2 setosa   5.01
##  4          4.6         3.1          1.5         0.2 setosa   5.01
##  5          5           3.6          1.4         0.2 setosa   5.01
##  6          5.4         3.9          1.7         0.4 setosa   5.01
##  7          4.6         3.4          1.4         0.3 setosa   5.01
##  8          5           3.4          1.5         0.2 setosa   5.01
##  9          4.4         2.9          1.4         0.2 setosa   5.01
## 10          4.9         3.1          1.5         0.1 setosa   5.01
## # ℹ 140 more rows
…
