Chapter 3 Probabilistic View | BIOSTATS
…
Figure 3.4: Garden view with sampling plots. White squares represent plots. Red dots indicate plant individuals counted.

Download the data here and load it onto R:

df_count <- read_csv("data_raw/data_garden_count.csv")
print(df_count)

## # A tibble: 30 × 2
##     plot count
##    <dbl> <dbl>
##  1     1     3
##  2     2     2
##  3     3     3
##  4     4     1
##  5     5     2
##  6     6     1
##  7     7     3
##  8     8     3
##  9     9     3
## 10    10     1
## # ℹ 20 more rows
…
