Chapter 2 Sampling | BIOSTATS
…
The unknowns we are interested in, which the population mean and variance in this example, are referred to as “parameters.” These parameters cannot be directly measured but can be estimated from samples through statistical inference.

Provided that certain assumptions are met, the sample mean is the unbiased point estimate of the population mean. The “unbiased” means that the sample means – if we repeat the sampling process – are centered around the population mean. In the meantime, the sample variance – if we use the formula in Chapter 1 – is “biased.” It tends to be smaller than the population variance.

Let’s explore this concept further through simple simulations. Suppose we have data on a thousand plant individuals, although this scenario may be unrealistic in practice. However, by conducting these simulations, we can examine how different sample means and variances can deviate from the true values.

Download the data here containing height measurements of thousand individuals, and place this file under data_raw/ in your project directory. You can load this csv file in R as follows:

# load csv data on R
df_h0 <- read_csv("data_raw/data_plant_height.csv")

# show the first 10 rows
print(df_h0)

## # A tibble: 1,000 × 4
##     ...1 plant_id height unit 
##    <dbl>    <dbl>  <dbl> <chr>
##  1     1        1   16.9 cm   
##  2     2        2   20.9 cm   
##  3     3        3   15.8 cm   
##  4     4        4   28   cm   
##  5     5        5   21.6 cm   
##  6     6        6   15.9 cm   
##  7     7        7   22.4 cm   
##  8     8        8   23.7 cm   
##  9     9        9   22.9 cm   
## 10    10       10   18.5 cm   
## # ℹ 990 more rows
…
