Chapter 3 Two-Group Comparison | BIOSTATS
…
            BIOSTATS

Chapter 3 Two-Group Comparison

Data consists of “samples” extracted from the population of interest, but it’s important to acknowledge that these samples are not flawless replicas of the entire population. Given this imperfect information, how can we effectively investigate and discern the distinction between two populations?

3.1 Explore Data Structure

Suppose that we study fish populations of the same species in two lakes (Lake a and b). These lakes are in stark contrast of productivity (Lake b looks more productive), and our interest is the difference in mean body size between the two lakes. We obtained \(50\) data points of fish length from each lake (download here). Save under data_raw/ and use read_csv() to read data:

library(tidyverse) # call add-in packages everytime you open new R session
df_fl <- read_csv("data_raw/data_fish_length.csv")
print(df_fl)

## # A tibble: 100 × 3
##    lake  length unit 
##    <chr>  <dbl> <chr>
##  1 a       10.8 cm   
##  2 a       13.6 cm   
##  3 a       10.1 cm   
##  4 a       18.6 cm   
##  5 a       14.2 cm   
##  6 a       10.1 cm   
##  7 a       14.7 cm   
##  8 a       15.6 cm   
##  9 a       15   cm   
## 10 a       11.9 cm   
## # ℹ 90 more rows
…
