Chapter 5 Data Manipulation | BIOSTATS
…
5.5 Reshape

pivot_wider() : reshape a data frame to a wide format

iris_w <- iris %>% 
  mutate(id = rep(1:50, 3)) %>% # add an ID column
  select(id, Sepal.Length, Species) %>% 
  pivot_wider(id_cols = "id", # unique row ID based on
              values_from = "Sepal.Length", # values in each cell from
              names_from = "Species") # new column names from

print(iris_w)

## # A tibble: 50 × 4
##       id setosa versicolor virginica
##    <int>  <dbl>      <dbl>     <dbl>
##  1     1    5.1        7         6.3
##  2     2    4.9        6.4       5.8
##  3     3    4.7        6.9       7.1
##  4     4    4.6        5.5       6.3
##  5     5    5          6.5       6.5
##  6     6    5.4        5.7       7.6
##  7     7    4.6        6.3       4.9
##  8     8    5          4.9       7.3
##  9     9    4.4        6.6       6.7
## 10    10    4.9        5.2       7.2
## # ℹ 40 more rows

pivot_longer(): reshape a data frame to a long format

iris_l <- iris_w %>% 
  pivot_longer(cols = c("setosa",
                        "versicolor",
                        "virginica"), # columns with values to be reshaped
               names_to = "Species", # column IDs move to "Species"
               values_to = "Sepal.Length") # column values move to "Sepal.Length"

print(iris_l)

## # A tibble: 150 × 3
##       id Species    Sepal.Length
##    <int> <chr>             <dbl>
##  1     1 setosa              5.1
##  2     1 versicolor          7  
##  3     1 virginica           6.3
##  4     2 setosa              4.9
##  5     2 versicolor          6.4
##  6     2 virginica           5.8
##  7     3 setosa              4.7
##  8     3 versicolor          6.9
##  9     3 virginica           7.1
## 10     4 setosa              4.6
## # ℹ 140 more rows
…
