Chapter 18 Generalized Additive Model | BIOSTATS
…
pacman::p_load(tidyverse,
               ggeffects,
               mgcv)

18.1 Seasonal Data

18.1.1 Water temperature example

To illustrate the application of nonlinear models, we use water temperature data collected from artificial wetlands on the campus of the University of North Carolina, Greensboro. These data are publicly available and form part of Ibrahim et al. 2025.

link <- "https://raw.githubusercontent.com/aterui/biostats/master/data_raw/data_water_temp.csv"

(df_wt_raw <- read_csv(link))

## # A tibble: 77,596 × 4
##       id date_time       temp site 
##    <dbl> <chr>          <dbl> <chr>
##  1     1 8/6/2021 18:00  23.1 woody
##  2     2 8/6/2021 18:15  23.1 woody
##  3     3 8/6/2021 18:30  23.1 woody
##  4     4 8/6/2021 18:45  23.2 woody
##  5     5 8/6/2021 19:00  23.2 woody
##  6     6 8/6/2021 19:15  23.2 woody
##  7     7 8/6/2021 19:30  23.2 woody
##  8     8 8/6/2021 19:45  23.2 woody
##  9     9 8/6/2021 20:00  23.2 woody
## 10    10 8/6/2021 20:15  23.3 woody
## # ℹ 77,586 more rows
…
    # Convert the character datetime column into a Date object.
    # The format argument specifies month/day/year.
    date = as.Date(date_time,
                   format = "%m/%d/%Y"),
    # Extract the calendar year from the Date object
    year = year(date),
    # Extract the month (1–12) from the Date object
    month = month(date)
  ) %>% 
  # Subset the data to observations from the year 2022 only
  # March through October
  filter(year == 2022,
         between(month, 3, 10)))

## # A tibble: 35,287 × 7
##       id date_time      temp site  date        year month
##    <dbl> <chr>         <dbl> <chr> <date>     <dbl> <dbl>
##  1 19801 3/1/2022 0:00  7.67 woody 2022-03-01  2022     3
##  2 19802 3/1/2022 0:15  7.62 woody 2022-03-01  2022     3
##  3 19803 3/1/2022 0:30  7.57 woody 2022-03-01  2022     3
##  4 19804 3/1/2022 0:45  7.52 woody 2022-03-01  2022     3
##  5 19805 3/1/2022 1:00  7.44 woody 2022-03-01  2022     3
##  6 19806 3/1/2022 1:15  7.39 woody 2022-03-01  2022     3
##  7 19807 3/1/2022 1:30  7.34 woody 2022-03-01  2022     3
##  8 19808 3/1/2022 1:45  7.29 woody 2022-03-01  2022     3
##  9 19809 3/1/2022 2:00  7.27 woody 2022-03-01  2022     3
## 10 19810 3/1/2022 2:15  7.22 woody 2022-03-01  2022     3
## # ℹ 35,277 more rows
…
