Chapter 17 Generalized Linear Mixed Effect Model | BIOSTATS
…
SiblingNegotiation, the number of negotiation calls made by siblings (the primary response variable).

BroodSize, the number of chicks in the nest.

NegPerChick, the number of negotiations per chick.

Since this original data contains a mix of upper- and lower-case letters, we will first clean the format:

(df_owl <- df_owl_raw %>%                 # Start with raw owl dataset and assign cleaned version
  janitor::clean_names() %>%              # Standardize column names (lowercase, underscores, etc.)
  mutate(across(.cols = where(is.factor), # Select all factor-type columns
                .fns = str_to_lower))     # Convert factor levels to lowercase
 )                     

## # A tibble: 599 × 8
##    nest    food_treatment sex_parent arrival_time sibling_negotiation brood_size
##    <chr>   <chr>          <chr>             <dbl>               <int>      <int>
##  1 autava… deprived       male               22.2                   4          5
##  2 autava… satiated       male               22.4                   0          5
##  3 autava… deprived       male               22.5                   2          5
##  4 autava… deprived       male               22.6                   2          5
##  5 autava… deprived       male               22.6                   2          5
##  6 autava… deprived       male               22.6                   2          5
##  7 autava… deprived       male               22.8                  18          5
##  8 autava… satiated       female             22.9                   4          5
##  9 autava… deprived       male               23.0                  18          5
## 10 autava… satiated       female             23.1                   0          5
## # ℹ 589 more rows
## # ℹ 2 more variables: neg_per_chick <dbl>, log_brood_size <dbl>
…
