Chapter 8 Generalized Linear Model | BIOSTATS
…
Figure 8.1: Garden view with sampling plots. White squares represent plots. Red dots indicate plant individuals counted.

df_count <- read_csv("data_raw/data_garden_count.csv")
print(df_count)

## # A tibble: 30 × 3
##     plot count nitrate
##    <dbl> <dbl>   <dbl>
##  1     1     1    14.6
##  2     2     4    32.6
##  3     3     6    29.3
##  4     4     4    30.4
##  5     5     7    34.1
##  6     6     2    26.6
##  7     7     2    30.2
##  8     8     2    28.7
##  9     9     3    32.5
## 10    10     2    26  
## # ℹ 20 more rows
…
Male freshwater mussels release sperm into the water, which is then drawn into female mussels downstream. Considering the nature of the fertilization process, female mussels are expected to have a higher probability of fertilization when they are surrounded by a greater number of males. To explore this relationship, the data can be loaded into R and visualized using a plot. By examining the data, we can observe the proportion of fertilized eggs based on the number of males. This visualization will provide insights into the impact of male presence on the fertilization process of female mussels.

df_mussel <- read_csv("data_raw/data_mussel.csv")
print(df_mussel)

## # A tibble: 100 × 4
##    ind_id n_fertilized n_examined density
##     <dbl>        <dbl>      <dbl>   <dbl>
##  1      1            0         30       3
##  2      2            1         30      14
##  3      3            2         30      14
##  4      4            6         30      19
##  5      5            2         30      17
##  6      6            0         30       8
##  7      7            4         30      19
##  8      8            0         30      11
##  9      9            0         30       7
## 10     10            0         30       7
## # ℹ 90 more rows
…
