Chapter 9 Likelihood | BIOSTATS
…
# change lambda from 0 to 10 by 0.1
lambda <- seq(0, 10, by = 0.1)

# probability
pr <- dpois(3, lambda = lambda)

# create a data frame
df_pois <- tibble(y = 3,
                  lambda = lambda,
                  pr = pr)

print(df_pois)

## # A tibble: 101 × 3
##        y lambda       pr
##    <dbl>  <dbl>    <dbl>
##  1     3    0   0       
##  2     3    0.1 0.000151
##  3     3    0.2 0.00109 
##  4     3    0.3 0.00333 
##  5     3    0.4 0.00715 
##  6     3    0.5 0.0126  
##  7     3    0.6 0.0198  
##  8     3    0.7 0.0284  
##  9     3    0.8 0.0383  
## 10     3    0.9 0.0494  
## # ℹ 91 more rows
…
Figure 9.1: Relationship between the parameter \(\lambda\) and the probability of observing a value of three.

By examining the figure or data, it appears that the probability is highest around \(\lambda = 3\). To confirm this observation, let’s arrange the data frame df_pois.

# arrange() re-orders the dataframe based on the speficied column in an ascending order
# desc() flips the order (descending)

df_pois %>% 
  arrange(desc(pr)) %>% 
  print()

## # A tibble: 101 × 3
##        y lambda    pr
##    <dbl>  <dbl> <dbl>
##  1     3    3   0.224
##  2     3    3.1 0.224
##  3     3    2.9 0.224
##  4     3    3.2 0.223
##  5     3    2.8 0.222
##  6     3    3.3 0.221
##  7     3    2.7 0.220
##  8     3    3.4 0.219
##  9     3    2.6 0.218
## 10     3    3.5 0.216
## # ℹ 91 more rows
…
# sapply repeats the task in FUN
# each element in "X" will be sequencially substituted in "z"
pr <- sapply(X = lambda,
             FUN = function(z) prod(dpois(y, lambda = z)))

# make a data frame and arrange by pr (likelihood)
df_pois <- tibble(lambda = lambda,
                  pr = pr)

df_pois %>% 
  arrange(desc(pr)) %>% 
  print()

## # A tibble: 1,001 × 2
##    lambda      pr
##     <dbl>   <dbl>
##  1   3.33 0.00534
##  2   3.34 0.00534
##  3   3.32 0.00534
##  4   3.35 0.00534
##  5   3.31 0.00534
##  6   3.36 0.00534
##  7   3.3  0.00534
##  8   3.37 0.00534
##  9   3.29 0.00533
## 10   3.38 0.00533
## # ℹ 991 more rows
…
