Chapter 7 Linear Model | BIOSTATS
…
When incorporating this variable into the model, some interesting outcomes arise. Since \(x_{2,i} = 0\) when an observation belongs to group a, the mean of group a (\(\mu_i = \mu_a\)) is determined as \(\mu_a = \alpha + \beta \times 0 = \alpha\). Consequently, the intercept represents the mean value of the first group. On the other hand, if an observation is from group b, the mean of group b (\(\mu_i = \mu_b\)) is given by \(\mu_b = \alpha + \beta \times 1 = \alpha + \beta\). It’s important to recall that \(\mu_a = \alpha\). By substituting \(\alpha\) with \(\mu_a\), the equation \(\beta = \mu_b - \mu_a\) is obtained, indicating that the slope represents the difference between the means of the two groups – the key statistic in the t-test.

Let me confirm this using the dataset in Chapter 4 (fish body length in two lakes):

library(tidyverse)
df_fl <- read_csv("data_raw/data_fish_length.csv")
print(df_fl)

## # A tibble: 100 × 3
##    lake  length unit 
##    <chr>  <dbl> <chr>
##  1 a       10.8 cm   
##  2 a       13.6 cm   
##  3 a       10.1 cm   
##  4 a       18.6 cm   
##  5 a       14.2 cm   
##  6 a       10.1 cm   
##  7 a       14.7 cm   
##  8 a       15.6 cm   
##  9 a       15   cm   
## 10 a       11.9 cm   
## # ℹ 90 more rows
…
\[
\begin{aligned}
\mu_a &= \alpha + \beta_2 \times 0 + \beta_3 \times 0 = \alpha &&\text{both}~x_{2,i}~\text{and}~x_{3,i}~\text{are zero}\\
\mu_b &= \alpha + \beta_2 \times 1 + \beta_3 \times 0 = \alpha + \beta_2 &&x_{2,i} = 1~\text{but}~x_{3,i}=0\\
\mu_c &= \alpha + \beta_2 \times 0 + \beta_3 \times 1 = \alpha + \beta_3 &&x_{2,i} = 0~\text{but}~x_{3,i}=1\\
\end{aligned}
\]

Therefore, the group a serves as the reference, and the \(\beta\)s represent the deviations from the reference group. Now, let me attempt the ANOVA dataset provided in Chapter 5:

df_anova <- read_csv("data_raw/data_fish_length_anova.csv")
print(df_anova)

## # A tibble: 150 × 3
##    lake  length unit 
##    <chr>  <dbl> <chr>
##  1 a       10.8 cm   
##  2 a       13.6 cm   
##  3 a       10.1 cm   
##  4 a       18.6 cm   
##  5 a       14.2 cm   
##  6 a       10.1 cm   
##  7 a       14.7 cm   
##  8 a       15.6 cm   
##  9 a       15   cm   
## 10 a       11.9 cm   
## # ℹ 140 more rows
…
No multicollinearity: The explanatory variables are not highly correlated with each other. Multicollinearity can lead to problems in estimating the coefficients accurately and can make interpretation difficult.

Violations of these assumptions can affect the validity and reliability of the results obtained from the Linear Model.

7.2 Combine Multiple Types of Variables

7.2.1 iris Example

The previous section clarified that the t-test, ANOVA, and regression have a common model structure; therefore, categorical and continuous variables can be included in the same model. Here, let me use the iris data (available in R by default) to show an example. This data set comprises continuous (Sepal.Length, Sepal.Width, Petal.Length, Petal.Width) and categorical variables (Species):

# convert the data format to tibble
iris <- as_tibble(iris)
print(iris)

## # A tibble: 150 × 5
##    Sepal.Length Sepal.Width Petal.Length Petal.Width Species
##           <dbl>       <dbl>        <dbl>       <dbl> <fct>  
##  1          5.1         3.5          1.4         0.2 setosa 
##  2          4.9         3            1.4         0.2 setosa 
##  3          4.7         3.2          1.3         0.2 setosa 
##  4          4.6         3.1          1.5         0.2 setosa 
##  5          5           3.6          1.4         0.2 setosa 
##  6          5.4         3.9          1.7         0.4 setosa 
##  7          4.6         3.4          1.4         0.3 setosa 
##  8          5           3.4          1.5         0.2 setosa 
##  9          4.4         2.9          1.4         0.2 setosa 
## 10          4.9         3.1          1.5         0.1 setosa 
## # ℹ 140 more rows
…
# make prediction based on supplied values of explanatory variables
y_pred <- predict(m_iris,
                  newdata = df_pred)

df_pred <- df_pred %>% 
  mutate(y_pred = y_pred)

print(df_pred)

## # A tibble: 300 × 3
##    Petal.Width Species y_pred
##          <dbl> <fct>    <dbl>
##  1       0.1   setosa    1.31
##  2       0.124 setosa    1.34
##  3       0.148 setosa    1.36
##  4       0.173 setosa    1.39
##  5       0.197 setosa    1.41
##  6       0.221 setosa    1.44
##  7       0.245 setosa    1.46
##  8       0.270 setosa    1.49
##  9       0.294 setosa    1.51
## 10       0.318 setosa    1.54
## # ℹ 290 more rows
…
