Chapter 22 Piecewise SEM | BIOSTATS
…
22.1.1 Post-fire plant diversity: the original model

One of the major limitations of the lavaan package is its reliance on multivariate normality; it cannot easily accommodate non-normal distributions in response (endogeneous) variables. In biological datasets, variables often deviate from normality, and treating them as normally distributed can increase the risk of inappropriate statistical inference.

Piecewise SEM addresses this limitation by allowing component models to follow a variety of distributions, such as Poisson, binomial, or negative binomial, making it much more flexible for real-world biological data. It is important to note, however, that piecewise SEM is not a full SEM in the traditional sense; it does not support latent variables within the directed acyclic graph (DAG). In practice, piecewise SEM should be understood as an extension of path analysis that combines generalized and/or mixed-effect models while retaining the network structure of relationships among variables.

To illustrate the utility of piecewise SEM, we will use the dataset from Grace and Keeley (2006). In their study, the authors examined the relationships among landscape position, abiotic conditions, fire severity, and plant diversity. This dataset is conveniently included in the piecewiseSEM package, allowing us to replicate and explore these ecological relationships using modern piecewise SEM methods.

data("keeley")

(df_keeley <- keeley %>% 
  as_tibble())

## # A tibble: 90 × 8
##    distance  elev abiotic   age hetero firesev cover  rich
##       <dbl> <int>   <dbl> <int>  <dbl>   <dbl> <dbl> <int>
##  1     53.4  1225    60.7    40  0.757    3.5  1.04     51
##  2     37.0    60    40.9    25  0.491    4.05 0.478    31
##  3     53.7   200    51.0    15  0.844    2.6  0.949    71
##  4     53.7   200    61.2    15  0.691    2.9  1.19     64
##  5     52.0   970    46.7    23  0.546    4.3  1.30     68
##  6     52.0   970    39.8    24  0.653    4    1.17     34
##  7     52.0   950    56.4    35  0.742    4.8  0.862    39
##  8     51.4   740    47.0    14  0.822    4.8  0.419    66
##  9     37.0   170    42.1    45  0.603    7.25 0.129    25
## 10     37.9   190    32.6    35  0.805    6.2  0.306    31
## # ℹ 80 more rows
…
