Chapter 3 Probabilistic View | BIOSTATS
…
Figure 3.4: Garden view with sampling plots. White squares represent plots. Red dots indicate plant individuals counted.

Download the data here and load it onto R:

df_count <- read_csv("data_raw/data_garden_count.csv")
print(df_count)

## # A tibble: 30 × 3
##     plot count nitrate
##    <dbl> <dbl>   <dbl>
##  1     1     1    14.6
##  2     2     4    32.6
##  3     3     6    29.3
##  4     4     4    30.4
##  5     5     7    34.1
##  6     6     2    26.6
##  7     7     2    30.2
##  8     8     2    28.7
##  9     9     3    32.5
## 10    10     2    26  
## # ℹ 20 more rows
…
