Chapter 12 Regression | BIOSTATS
…
12 Regression

Our previous examples focused on cases that involved a distinct group structure. However, it is not always the case that such a structure exists. Instead, we might examine the relationship between continuous variables. In this chapter, I will introduce a technique called linear regression.

Key words: intercept, slope (coefficient), least squares, residual, coefficient of determination (\(\mbox{R}^2\))

12.1 Explore Data Structure

For this exercise, we will use algae biomass data from streams. Download the data here and locate it in data_raw/.

library(tidyverse)
df_algae <- read_csv("data_raw/data_algae.csv")
print(df_algae)

## # A tibble: 50 × 4
##    biomass unit_biomass conductivity unit_cond
##      <dbl> <chr>               <dbl> <chr>    
##  1   19.8  mg_per_m2            30.2 ms       
##  2   24.4  mg_per_m2            40.4 ms       
##  3   27.4  mg_per_m2            59.4 ms       
##  4   48.2  mg_per_m2            91.3 ms       
##  5   19.2  mg_per_m2            24.2 ms       
##  6   57.0  mg_per_m2            90.4 ms       
##  7   51.9  mg_per_m2            94.7 ms       
##  8   40.8  mg_per_m2            67.8 ms       
##  9   37.1  mg_per_m2            64.8 ms       
## 10    3.55 mg_per_m2            10.9 ms       
## # ℹ 40 more rows
…
