Chapter 21 Structural Equation Modeling | BIOSTATS
…
21.1 Path analysis

Path analysis is a special case of SEM. It is designed for cases where all variables of interest are directly measured, and you are interested in direct and indirect effects between those observed variables.

Let’s use the following data set, which involves plant, herbivore, and predator variables measured in 100 plots.

# Specify the URL of the raw CSV file on GitHub
url <- "https://raw.githubusercontent.com/aterui/biostats/master/data_raw/data_foodweb.csv"

# Read the CSV file into a tibble
(df_fw <- read_csv(url))

## # A tibble: 100 × 5
##    plot_id mass_plant cv_h_plant mass_herbiv mass_pred
##      <dbl>      <dbl>      <dbl>       <dbl>     <dbl>
##  1       1       99.3       4.98        50.3      24.6
##  2       2       99.8       4.97        49.9      24.7
##  3       3      102.        4.99        50.5      25.1
##  4       4      100.        4.96        50.2      24.9
##  5       5      100.        4.99        50.4      25.2
##  6       6      102.        5.05        50.4      25.1
##  7       7      100.        4.92        50.4      25.3
##  8       8       98.6       4.99        50.4      25.3
##  9       9       99.3       5.06        50.1      24.7
## 10      10       99.7       5.07        49.5      24.9
## # ℹ 90 more rows
…
21.2 Structural Equation Modeling

In this section, we will extend a path analysis to structural equation modeling (SEM). What distinguishes a SEM from a simple path model is the ability to incorporate latent variables in the DAG.

Latent variables are “unobserved” variables that exist only within the statistical model. They are typically composites of multiple observed variables, often those that are strongly correlated with each other, and represent underlying constructs that cannot be measured directly.

21.2.1 SEM vs. Path analysis

To explore this, we will use the following dataset.

url <- "https://raw.githubusercontent.com/aterui/biostats/master/data_raw/data_herbivory.csv"

(df_herbv <- read_csv(url))

## # A tibble: 100 × 5
##    soil_n herbivory   sla cn_ratio per_lignin
##     <dbl>     <dbl> <dbl>    <dbl>      <dbl>
##  1    7.9      94.3 101.       9.4        6.9
##  2   10.5      97.7 100.       9.1        6.9
##  3    9.4     116.   99.9      9.7        8.1
##  4    9.1     101.   99.9      9.8        8  
##  5    7.7     101.   99.4     10.6        8.1
##  6   10       117.  100.       9.4        7.8
##  7    8.2     105.   98.8     10.3        8.3
##  8    5.9      87.4  98.9     11.1        8.7
##  9    8.8      93.1 101        9.4        7.4
## 10   12.3      95.5 101.      10          7.8
## # ℹ 90 more rows
…
