Chapter 22 Time-Series Analaysis | BIOSTATS
…
22 Time-Series Analaysis

pacman::p_load(tidyverse,
               forecast)

22.1 Pitfall of Time-Series

22.1.1 Time-series anormalies

Let’s explore a simple time series dataset, showing air-quality anomalies measured over 100 years.

url <- "https://raw.githubusercontent.com/aterui/biostats/master/data_raw/data_ts_anormaly.csv"
(df_ts <- read_csv(url))

## # A tibble: 100 × 2
##    anormaly  year
##       <dbl> <dbl>
##  1    0      1926
##  2   -0.560  1927
##  3   -0.791  1928
##  4    0.768  1929
##  5    0.839  1930
##  6    0.968  1931
##  7    2.68   1932
##  8    3.14   1933
##  9    1.88   1934
## 10    1.19   1935
## # ℹ 90 more rows
…
